Data Analysis HW8
…
Data Analysis HW8

Artin Tajdini 95109983

May 5, 2018

gutenberg_metadata %>%
  filter(str_detect(author,"Dickens, Charles"), language == "en", has_text) 

# A tibble: 78 x 8
   gutenberg_id title    author gutenberg_autho~ language gutenberg_books~
          <int> <chr>    <chr>             <int> <chr>    <chr>           
 1           46 A Chris~ Dicke~               37 en       Christmas/Child~
 2           98 A Tale ~ Dicke~               37 en       Historical Fict~
 3          564 The Mys~ Dicke~               37 en       Mystery Fiction 
 4          580 The Pic~ Dicke~               37 en       Best Books Ever~
 5          588 Master ~ Dicke~               37 en       <NA>            
 6          644 The Hau~ Dicke~               37 en       Christmas       
 7          650 Picture~ Dicke~               37 en       <NA>            
 8          653 "The Ch~ Dicke~               37 en       <NA>            
 9          675 America~ Dicke~               37 en       <NA>            
10          678 The Cri~ Dicke~               37 en       Children's Lite~
# ... with 68 more rows, and 2 more variables: rights <chr>,
#   has_text <lgl>
…
